;FLAVOR:Marlin
;TIME:887
;Filament used: 0.130023m
;Layer height: 0.12
;MINX:24
;MINY:24
;MINZ:0.2
;MAXX:196
;MAXY:196
;MAXZ:0.32
;Generated with Cura_SteamEngine 4.4
M140 S60
M105
M190 S60
M104 S215
M105
M109 S215
M82 ;absolute extrusion mode
M201 X500.00 Y500.00 Z100.00 E5000.00 ;Setup machine max acceleration
M203 X500.00 Y500.00 Z10.00 E50.00 ;Setup machine max feedrate
M204 P500.00 R1000.00 T500.00 ;Setup Print/Retract/Travel acceleration
M205 X8.00 Y8.00 Z0.40 E5.00 ;Setup Jerk
M220 S100 ;Reset Feedrate
M221 S100 ;Reset Flowrate

G28 ;Home

G92 E0 ;Reset Extruder
G1 Z2.0 F3000 ;Move Z Axis up
G1 X10.1 Y20 Z0.28 F5000.0 ;Move to start position
G1 X10.1 Y200.0 Z0.28 F1500.0 E15 ;Draw the first line
G1 X10.4 Y200.0 Z0.28 F5000.0 ;Move to side a little
G1 X10.4 Y20 Z0.28 F1500.0 E30 ;Draw the second line
G92 E0 ;Reset Extruder
G1 Z2.0 F3000 ;Move Z Axis up

G92 E0
G92 E0
G1 F2700 E-5
;LAYER_COUNT:2
;LAYER:0
M107
G0 F6000 X27.198 Y27.264 Z0.2
;TYPE:SKIRT
G1 F2700 E0
G1 F240 X27.886 Y26.627 E0.03119
G1 X28.626 Y26.051 E0.06237
G1 X29.412 Y25.539 E0.09357
G1 X30.239 Y25.097 E0.12476
G1 X31.101 Y24.727 E0.15596
G1 X31.991 Y24.431 E0.18716
G1 X32.903 Y24.213 E0.21835
G1 X33.83 Y24.072 E0.24953
G1 X34.701 Y24.013 E0.27857
G1 X35.022 Y24.004 E0.28925
G1 X35.33 Y24 E0.29949
G1 X184.293 Y24 E5.25402
G1 X184.451 Y24.001 E5.25928
G1 X185.149 Y24.011 E5.2825
G1 X186.085 Y24.065 E5.31368
G1 X187.013 Y24.197 E5.34486
G1 X187.927 Y24.409 E5.37606
G1 X188.819 Y24.698 E5.40725
G1 X189.684 Y25.061 E5.43845
G1 X190.514 Y25.497 E5.46963
G1 X191.305 Y26.002 E5.50085
G1 X192.049 Y26.573 E5.53204
G1 X192.742 Y27.205 E5.56323
G1 X193.379 Y27.893 E5.59442
G1 X193.954 Y28.634 E5.62562
G1 X194.465 Y29.42 E5.6568
G1 X194.907 Y30.248 E5.68801
G1 X195.276 Y31.11 E5.7192
G1 X195.571 Y32 E5.75039
G1 X195.789 Y32.912 E5.78157
G1 X195.929 Y33.84 E5.81279
G1 X195.987 Y34.701 E5.84149
G1 X195.996 Y35.021 E5.85214
G1 X196 Y35.33 E5.86242
G1 X196 Y184.264 E10.81598
G1 X195.999 Y184.4 E10.8205
G1 X195.99 Y185.127 E10.84469
G1 X195.939 Y186.064 E10.8759
G1 X195.807 Y186.992 E10.90707
G1 X195.598 Y187.906 E10.93826
G1 X195.311 Y188.799 E10.96946
G1 X194.949 Y189.665 E11.00067
G1 X194.515 Y190.496 E11.03186
G1 X194.011 Y191.287 E11.06305
G1 X193.442 Y192.032 E11.09423
G1 X192.811 Y192.727 E11.12545
G1 X192.124 Y193.365 E11.15664
G1 X191.385 Y193.942 E11.18782
G1 X190.599 Y194.454 E11.21902
G1 X189.773 Y194.897 E11.25019
G1 X188.911 Y195.269 E11.28142
G1 X188.022 Y195.565 E11.31258
G1 X187.11 Y195.785 E11.34379
G1 X186.183 Y195.926 E11.37497
G1 X185.299 Y195.987 E11.40445
G1 X184.978 Y195.996 E11.41513
G1 X184.67 Y196 E11.42537
G1 X35.707 Y196 E16.3799
G1 X35.565 Y195.999 E16.38462
G1 X34.867 Y195.99 E16.40784
G1 X33.931 Y195.938 E16.43902
G1 X33.002 Y195.806 E16.47023
G1 X32.088 Y195.596 E16.50142
G1 X31.195 Y195.309 E16.53262
G1 X30.33 Y194.946 E16.56382
G1 X29.499 Y194.512 E16.595
G1 X28.708 Y194.008 E16.6262
G1 X27.963 Y193.438 E16.6574
G1 X27.269 Y192.807 E16.68859
G1 X26.632 Y192.12 E16.71975
G1 X26.055 Y191.38 E16.75096
G1 X25.543 Y190.594 E16.78216
G1 X25.1 Y189.767 E16.81337
G1 X24.729 Y188.906 E16.84455
G1 X24.433 Y188.016 E16.87575
G1 X24.214 Y187.104 E16.90694
G1 X24.073 Y186.177 E16.93813
G1 X24.013 Y185.288 E16.96776
G1 X24.004 Y184.955 E16.97884
G1 X24 Y184.658 E16.98872
G1 X24 Y35.674 E21.94395
G1 X24.001 Y35.525 E21.94891
G1 X24.01 Y34.86 E21.97103
G1 X24.063 Y33.924 E22.00221
G1 X24.195 Y32.995 E22.03342
G1 X24.406 Y32.081 E22.06462
G1 X24.694 Y31.189 E22.09579
G1 X25.057 Y30.324 E22.12699
G1 X25.492 Y29.493 E22.15819
G1 X25.996 Y28.703 E22.18936
G1 X26.566 Y27.958 E22.22056
G1 X27.198 Y27.264 E22.25178
G0 F6000 X27.589 Y27.439
G1 F240 X28.274 Y26.823 E22.28242
G1 X29.01 Y26.27 E22.31304
G1 X29.791 Y25.782 E22.34367
G1 X30.611 Y25.364 E22.37428
G1 X31.465 Y25.019 E22.40491
G1 X32.345 Y24.749 E22.43553
G1 X33.245 Y24.557 E22.46614
G1 X34.159 Y24.443 E22.49677
G1 X34.712 Y24.413 E22.51519
G1 X35.033 Y24.404 E22.52587
G1 X35.33 Y24.4 E22.53575
G1 X184.293 Y24.4 E27.49028
G1 X184.445 Y24.401 E27.49534
G1 X185.143 Y24.411 E27.51855
G1 X186.062 Y24.464 E27.54917
G1 X186.973 Y24.597 E27.57979
G1 X187.869 Y24.808 E27.61041
G1 X188.743 Y25.096 E27.64102
G1 X189.59 Y25.459 E27.67167
G1 X190.401 Y25.894 E27.70227
G1 X191.171 Y26.398 E27.73288
G1 X191.895 Y26.967 E27.76351
G1 X192.567 Y27.597 E27.79415
G1 X193.182 Y28.282 E27.82477
G1 X193.735 Y29.018 E27.85539
G1 X194.222 Y29.799 E27.886
G1 X194.639 Y30.62 E27.91662
G1 X194.984 Y31.474 E27.94726
G1 X195.253 Y32.354 E27.97786
G1 X195.445 Y33.255 E28.00851
G1 X195.558 Y34.168 E28.0391
G1 X195.587 Y34.712 E28.05722
G1 X195.596 Y35.032 E28.06787
G1 X195.6 Y35.33 E28.07778
G1 X195.6 Y184.264 E33.03135
G1 X195.599 Y184.395 E33.0357
G1 X195.59 Y185.122 E33.05989
G1 X195.539 Y186.041 E33.0905
G1 X195.408 Y186.953 E33.12114
G1 X195.198 Y187.849 E33.15175
G1 X194.912 Y188.724 E33.18237
G1 X194.551 Y189.571 E33.21299
G1 X194.117 Y190.383 E33.24362
G1 X193.615 Y191.155 E33.27424
G1 X193.047 Y191.88 E33.30488
G1 X192.419 Y192.553 E33.33549
G1 X191.735 Y193.169 E33.36611
G1 X191 Y193.723 E33.39672
G1 X190.22 Y194.212 E33.42734
G1 X189.4 Y194.631 E33.45797
G1 X188.547 Y194.977 E33.48858
G1 X187.667 Y195.248 E33.51921
G1 X186.767 Y195.441 E33.54982
G1 X185.853 Y195.556 E33.58046
G1 X185.288 Y195.587 E33.59928
G1 X184.967 Y195.596 E33.60997
G1 X184.67 Y195.6 E33.61984
G1 X35.707 Y195.6 E38.57437
G1 X35.57 Y195.599 E38.57893
G1 X34.872 Y195.59 E38.60215
G1 X33.953 Y195.538 E38.63276
G1 X33.042 Y195.407 E38.66337
G1 X32.146 Y195.197 E38.69398
G1 X31.271 Y194.91 E38.72461
G1 X30.424 Y194.548 E38.75525
G1 X29.612 Y194.114 E38.78587
G1 X28.841 Y193.612 E38.81647
G1 X28.116 Y193.044 E38.8471
G1 X27.443 Y192.415 E38.87774
G1 X26.828 Y191.731 E38.90834
G1 X26.274 Y190.996 E38.93895
G1 X25.786 Y190.215 E38.96958
G1 X25.367 Y189.395 E39.00021
G1 X25.021 Y188.542 E39.03082
G1 X24.751 Y187.662 E39.06144
G1 X24.558 Y186.761 E39.09209
G1 X24.444 Y185.848 E39.12269
G1 X24.413 Y185.277 E39.14171
G1 X24.404 Y184.944 E39.15279
G1 X24.4 Y184.658 E39.1623
G1 X24.4 Y35.674 E44.11753
G1 X24.401 Y35.531 E44.12228
G1 X24.41 Y34.866 E44.1444
G1 X24.462 Y33.946 E44.17505
G1 X24.594 Y33.035 E44.20567
G1 X24.805 Y32.139 E44.23628
G1 X25.092 Y31.264 E44.26691
G1 X25.455 Y30.418 E44.29753
G1 X25.889 Y29.606 E44.32815
G1 X26.392 Y28.835 E44.35877
G1 X26.961 Y28.111 E44.3894
G1 X27.589 Y27.439 E44.41999
G0 F6000 X27.981 Y27.617
G1 F240 X28.662 Y27.024 E44.45003
G1 X29.394 Y26.494 E44.48008
G1 X30.169 Y26.031 E44.51011
G1 X30.982 Y25.638 E44.54014
G1 X31.827 Y25.318 E44.5702
G1 X32.696 Y25.075 E44.60021
G1 X33.584 Y24.909 E44.63026
G1 X34.723 Y24.813 E44.66827
G1 X35.044 Y24.804 E44.67895
G1 X35.33 Y24.8 E44.68847
G1 X184.293 Y24.8 E49.643
G1 X184.439 Y24.801 E49.64785
G1 X185.137 Y24.811 E49.67107
G1 X186.039 Y24.864 E49.70112
G1 X186.932 Y24.996 E49.73115
G1 X187.81 Y25.207 E49.76118
G1 X188.666 Y25.495 E49.79122
G1 X189.493 Y25.857 E49.82125
G1 X190.285 Y26.292 E49.8513
G1 X191.036 Y26.794 E49.88134
G1 X191.739 Y27.361 E49.91138
G1 X192.389 Y27.988 E49.94142
G1 X192.981 Y28.67 E49.97146
G1 X193.511 Y29.401 E50.00149
G1 X193.973 Y30.177 E50.03153
G1 X194.366 Y30.99 E50.06156
G1 X194.684 Y31.835 E50.09159
G1 X194.927 Y32.705 E50.12163
G1 X195.092 Y33.593 E50.15167
G1 X195.187 Y34.723 E50.18939
G1 X195.196 Y35.043 E50.20004
G1 X195.2 Y35.33 E50.20959
G1 X195.2 Y184.264 E55.16315
G1 X195.199 Y184.39 E55.16734
G1 X195.19 Y185.117 E55.19152
G1 X195.139 Y186.019 E55.22157
G1 X195.008 Y186.913 E55.25162
G1 X194.799 Y187.791 E55.28164
G1 X194.513 Y188.648 E55.31169
G1 X194.152 Y189.476 E55.34173
G1 X193.72 Y190.268 E55.37174
G1 X193.219 Y191.02 E55.40179
G1 X192.653 Y191.724 E55.43184
G1 X192.028 Y192.375 E55.46185
G1 X191.347 Y192.969 E55.49191
G1 X190.616 Y193.5 E55.52196
G1 X189.842 Y193.964 E55.55198
G1 X189.029 Y194.358 E55.58202
G1 X188.185 Y194.678 E55.61205
G1 X187.315 Y194.923 E55.64211
G1 X186.428 Y195.089 E55.67212
G1 X185.277 Y195.187 E55.71054
G1 X184.956 Y195.196 E55.72122
G1 X184.67 Y195.2 E55.73074
G1 X35.707 Y195.2 E60.68527
G1 X35.575 Y195.199 E60.68966
G1 X34.877 Y195.19 E60.71287
G1 X33.976 Y195.139 E60.74289
G1 X33.082 Y195.007 E60.77295
G1 X32.204 Y194.798 E60.80296
G1 X31.347 Y194.511 E60.83302
G1 X30.52 Y194.15 E60.86304
G1 X29.727 Y193.717 E60.89309
G1 X28.976 Y193.216 E60.92311
G1 X28.272 Y192.65 E60.95316
G1 X27.621 Y192.024 E60.9832
G1 X27.028 Y191.343 E61.01323
G1 X26.498 Y190.612 E61.04326
G1 X26.034 Y189.837 E61.07331
G1 X25.64 Y189.024 E61.10335
G1 X25.32 Y188.18 E61.13338
G1 X25.076 Y187.31 E61.16343
G1 X24.91 Y186.422 E61.19348
G1 X24.813 Y185.267 E61.23203
G1 X24.804 Y184.934 E61.24311
G1 X24.8 Y184.658 E61.25229
G1 X24.8 Y35.674 E66.20751
G1 X24.801 Y35.536 E66.2121
G1 X24.81 Y34.871 E66.23422
G1 X24.862 Y33.969 E66.26428
G1 X24.994 Y33.076 E66.2943
G1 X25.204 Y32.198 E66.32433
G1 X25.491 Y31.341 E66.35439
G1 X25.853 Y30.514 E66.38441
G1 X26.286 Y29.722 E66.41443
G1 X26.788 Y28.971 E66.44448
G1 X27.355 Y28.267 E66.47454
G1 X27.981 Y27.617 E66.50456
G1 F2700 E61.50456
;MESH:150x150mm.stl
G0 F6000 X34.588 Y34.589
G0 X35.32 Y35.32
G0 X35.4 Y184.4
G0 X35.6 Y184.4
;TYPE:WALL-OUTER
G1 F2700 E66.50456
G1 F240 X184.4 Y184.4 E71.45367
G1 X184.4 Y35.6 E76.40277
G1 X35.6 Y35.6 E81.35188
G1 X35.6 Y184.4 E86.30099
G0 F6000 X35.2 Y184.8
G1 F240 X35.2 Y35.2 E91.27671
G1 X184.8 Y35.2 E96.25242
G1 X184.8 Y184.8 E101.22814
G1 X35.2 Y184.8 E106.20385
;MESH:NONMESH
G0 F300 X35.2 Y184.8 Z0.32
G0 F6000 X35.6 Y184.4
;TIME_ELAPSED:805.325459
;LAYER:1
M140 S60
M106 S85
;TYPE:WALL-OUTER
;MESH:150x150mm.stl
G1 F870 X184.4 Y184.4 E109.17332
G1 X184.4 Y35.6 E112.14278
G1 X35.6 Y35.6 E115.11225
G1 X35.6 Y184.4 E118.08171
G0 F7500 X35.2 Y184.8
G1 F870 X35.2 Y35.2 E121.06714
G1 X184.8 Y35.2 E124.05257
G1 X184.8 Y184.8 E127.038
G1 X35.2 Y184.8 E130.02343
;TIME_ELAPSED:887.772525
G1 F2700 E125.02343
M140 S0
M107
G91 ;Relative positioning
G1 E-2 F2700 ;Retract a bit
G1 E-2 Z0.2 F2400 ;Retract and raise Z
G1 X5 Y5 F3000 ;Wipe out
G1 Z10 ;Raise Z more
G90 ;Absolute positionning

G1 X0 Y220 ;Present print
M106 S0 ;Turn-off fan
M104 S0 ;Turn-off hotend
M140 S0 ;Turn-off bed

M84 X Y E ;Disable all steppers but Z

M82 ;absolute extrusion mode
M104 S0
;End of Gcode
;SETTING_3 {"global_quality": "[general]\\nversion = 4\\nname = estandar-basico\
;SETTING_3 \ndefinition = creality_ender3\\n\\n[metadata]\\ntype = quality_chang
;SETTING_3 es\\nsetting_version = 10\\nquality_type = standard\\nintent_category
;SETTING_3  = default\\n\\n[values]\\nadhesion_type = skirt\\nlayer_height = 0.1
;SETTING_3 2\\nmaterial_bed_temperature = 60\\nsupport_enable = True\\nsupport_t
;SETTING_3 ype = buildplate\\n\\n", "extruder_quality": ["[general]\\nversion = 
;SETTING_3 4\\nname = estandar-basico\\ndefinition = creality_ender3\\n\\n[metad
;SETTING_3 ata]\\nposition = 0\\ntype = quality_changes\\nsetting_version = 10\\
;SETTING_3 nquality_type = standard\\nintent_category = default\\n\\n[values]\\n
;SETTING_3 bottom_layers = 1\\ninfill_sparse_density = 100\\nmaterial_print_temp
;SETTING_3 erature = 215\\nspeed_layer_0 = 4.0\\ntop_layers = 11\\n\\n"]}
